[
  {
    "name": "default",
    "type": "postgres",
    "host": "rds-pest-detection-test.ccezyfmvlqvx.us-west-2.rds.amazonaws.com",
    "port": 55432,
    "username": "postgre",
    "password": "n34tl34f!",
    "database": "pest_detection",
    "synchronize": true,
    "entities": ["./src/entities/**/*.ts"],
    "logging": true
  }
]
